{
    "mp_backlot": "https://i.imgur.com/pSE0AO7.jpg",
    "mp_citystreets": "https://i.imgur.com/cOt3UEa.jpg",
    "mp_crash": "https://i.imgur.com/NF2CMGZ.jpg",
    "mp_crossfire": "https://i.imgur.com/VZamBKW.jpg",
    "mp_strike": "https://i.imgur.com/ulppqIU.jpg",
    "mp_vacant": "https://i.imgur.com/7aee6d0.png"
}
